…
Write the simulation function.

``` r
sim_results = function(x) { 
  rerun(5000, sim_mean_sd(mu = x)) %>% 
  bind_rows()
}
sim_results(0)
```

    ## # A tibble: 5,000 x 2
    ##    estimate p.value
    ##       <dbl>   <dbl>
    ##  1    1.38   0.0845
    ##  2    0.526  0.513 
    ##  3    0.439  0.645 
    ##  4    0.786  0.404 
    ##  5    1.11   0.294 
    ##  6    1.79   0.0281
    ##  7   -1.31   0.137 
    ##  8    1.67   0.0931
    ##  9    1.45   0.0728
    ## 10   -0.675  0.511 
    ## # ... with 4,990 more rows
…
